{
  "format_version": "1.8.0-beta.1",
  "render_controllers": {
    "controller.render.armor.leather": {
      "geometry": "Geometry.default",
      "materials": [ { "*": "Entity.IsEnchanted ? Material.default : Material.enchanted" } ],
      "textures": [ "Texture.default", "Texture.enchanted" ]
    }
  }
}
