{
  "format_version": "1.8.0-beta.1",
  "render_controllers": {
    "controller.render.bat": {
      "geometry": "Geometry.default",
      "materials": [ { "*": "Material.default" } ],
      "textures": [ "Texture.default" ]
    }
  }
}
