{
  "format_version": "1.8.0-beta.1",
  "render_controllers": {
    "controller.render.vex": {
      "arrays": {
        "textures": {
          "Array.textures": [ "Texture.default", "Texture.charging" ]
        }
      },
      "geometry": "Geometry.default",
      "materials": [ { "*": "Material.default" } ],
      "textures": [ "Array.textures[Entity.Flags.CHARGING]" ]
    }
  }
}
