{
  "format_version": "1.8.0-beta.1",
  "minecraft:client_entity": {
    "description": {
      "identifier": "minecraft:armor_stand",
      "textures": {
        "default": "textures/entity/armor_stand"
      },
      "geometry": {
        "default": "geometry.armor_stand"
      }
    }
  }
}