{
  "format_version": "1.8.0-beta.1",
  "minecraft:client_entity": {
    "description": {
      "identifier": "minecraft:drowned",
      "textures": {
        "default": "textures/entity/zombie/drowned"
      },
      "geometry": {
        "default": "geometry.zombie.drowned",
        "armor1": "geometry.humanoid.armor1",
        "armor2": "geometry.humanoid.armor2"
      },
      "spawn_egg": {
        "texture": "spawn_egg",
        "texture_index": 48
      }
    }
  }
}