{
  "minecraft:entity": {
    "format_version": "1.6.0",
    "description": {
      "minecraft:identifier": {
        "id": "minecraft:ice_bomb"
      }
    },
    "components": {
      "minecraft:collision_box": {
        "width": 0.25,
        "height": 0.25
      },
      "minecraft:projectile": {
        "onHit": {
          "freeze_on_hit": {
            "size": 1.1,
            "shape": "cube",
            "snap_to_block": true
          },
          "remove_on_hit": {},
          "particle_on_hit": {
            "particle_type": "snowballpoof",
            "num_particles": 6,
            "on_entity_hit": true,
            "on_other_hit": true
          }
        },
        "hitSound": "icebomb.hit",
        "power": 1.5,
        "gravity": 0.025,
        "angleoffset": 0.0,
        "inertia": 1,
        "liquid_inertia": 1,
        "hitWater": true
      },
      "minecraft:physics": {
      }
    }
  }
}
