{
  "format_version": "1.8.0-beta.1",
  "minecraft:attachable": {
    "description": {
      "identifier": "minecraft:diamond_leggings",
      "materials": {
        "default": "armor",
        "enchanted": "armor_enchanted"
      },
      "textures": {
        "default": "textures/models/armor/diamond_2",
        "enchanted": "textures/misc/enchanted_item_glint"
      },
      "geometry": {
        "default": "geometry.humanoid.armor.leggings"
      },
      "render_controllers": [ "controller.render.armor" ]
    }
  }
}
