{
  "format_version": "1.8.0-beta.1",
  "animations": {
    "animation.cow.setup": {
      "loop": true,
      "bones": {
        "body": {
          "rotation": [ "-this", 0.0, 0.0 ]
        }
      }
    },
    "animation.cow.baby_transform": {
      "loop": true,
      "bones": {
        "head": {
          "scale": "Entity.Flags.BABY ? 2.0 : 1.0",
          "position": [ 0.0, "Entity.Flags.BABY ? 4.0 : 0.0", "Entity.Flags.BABY ? 4.0 : 0.0" ]
        }
      }
    }
  }
}