{
  "format_version": "1.8.0-beta.1",
  "animations": {
    "animation.pig.setup": {
      "loop": true,
      "bones": {
        "body": {
          "rotation": [ "-this", 0.0, 0.0 ]
        }
      }
    },
    "animation.pig.idle": {
      "loop": true,
      "bones": {
        "head": { "rotation": [ "Math.cos(Params.AnimTime * 38.17) * 2.0 + Math.cos(Params.AnimTime * 27.0) * 2.0", "Math.cos(Params.AnimTime * 15.1) * 4.0", 0.0 ] }
      }
    },
    "animation.pig.baby_transform": {
      "loop": true,
      "bones": {
        "head": {
          "scale": 2.0,
          "position": [ 0.0, 8.0, 4.0 ]
        }
      }
    }
  }
}