{
  "geometry.balloon": {
    "bones": [
      {
        "pivot": [
          0.0,
          0.0,
          0.0
        ],
        "rotation": [
          0.0,
          0.0,
          0.0
        ],
        "cubes": [
          {
            "origin": [
              -2.9992,
              1.9992,
              -4.0
            ],
            "size": [
              6.0,
              7.0,
              1.0
            ],
            "uv": [
              0.0,
              7.0
            ],
            "inflate": 0.0,
            "mirror": false
          },
          {
            "origin": [
              -3.0,
              2.0,
              3.0008
            ],
            "size": [
              6.0,
              7.0,
              1.0
            ],
            "uv": [
              0.0,
              7.0
            ],
            "inflate": 0.0,
            "mirror": false
          }
        ],
        "META_BoneType": "base",
        "name": "body",
        "parent": null
      },
      {
        "pivot": [
          0.0,
          5.0,
          0.0
        ],
        "rotation": [
          0.0,
          90.0,
          0.0
        ],
        "cubes": [
          {
            "origin": [
              -3.00004,
              2.0,
              -4.00004
            ],
            "size": [
              6.0,
              7.0,
              1.0
            ],
            "uv": [
              0.0,
              7.0
            ],
            "inflate": 0.0,
            "mirror": false
          },
          {
            "origin": [
              -3.0,
              2.0008,
              2.9992
            ],
            "size": [
              6.0,
              7.0,
              1.0
            ],
            "uv": [
              0.0,
              7.0
            ],
            "inflate": 0.0,
            "mirror": false
          }
        ],
        "META_BoneType": "base",
        "name": "head",
        "parent": null
      },
      {
        "pivot": [
          0.0,
          5.0,
          0.0
        ],
        "rotation": [
          90.0,
          0.0,
          0.0
        ],
        "cubes": [
          {
            "origin": [
              -3.0,
              2.0,
              -4.0
            ],
            "size": [
              6.0,
              6.0,
              1.0
            ],
            "uv": [
              0.0,
              15.0
            ],
            "inflate": 0.0,
            "mirror": false
          },
          {
            "origin": [
              -3.0,
              1.99919,
              4.0
            ],
            "size": [
              6.0,
              6.0,
              1.0
            ],
            "uv": [
              0.0,
              0.0
            ],
            "inflate": 0.0,
            "mirror": false
          },
          {
            "origin": [
              -0.9992,
              3.99997,
              -4.99922
            ],
            "size": [
              2.0,
              2.0,
              1.0
            ],
            "uv": [
              14.0,
              0.0
            ],
            "inflate": 0.0,
            "mirror": false
          }
        ],
        "META_BoneType": "base",
        "name": "rightArm",
        "parent": null
      }
    ],
    "texturewidth": 22,
    "textureheight": 22,
    "META_ModelVersion": "1.0.6",
    "rigtype": "normal"
  }
}