[
	{"path":"materials/sad.material"},
	{"path":"materials/entity.material"},
	{"path":"materials/terrain.material"},
	{"path":"materials/portal.material"},
	{"path":"materials/barrier.material"}
]