{
  "type": "crafting_shaped",
  "group": "banner",
  "pattern": [
    "###",
    "###",
    " | "
  ],
  "key": {
    "#": {
      "item": "minecraft:wool",
      "data": 15
    },
    "|": {
      "item": "minecraft:stick"
    }
  },
  "result": {
    "item": "minecraft:banner",
    "data": 0
  }
}