{
  "type": "crafting_shaped",
  "pattern": [
    " B ",
    "###"
  ],
  "key": {
    "B": {
      "item": "minecraft:blaze_rod"
    },
    "#": {
      "item": "minecraft:cobblestone"
    }
  },
  "result": {
    "item": "minecraft:brewing_stand"
  }
}