{
  "type": "crafting_shaped",
  "pattern": [
    "# ",
    " X"
  ],
  "key": {
    "#": {
      "item": "minecraft:fishing_rod"
    },
    "X": {
      "item": "minecraft:carrot"
    }
  },
  "result": {
    "item": "minecraft:carrotonastick"
  }
}