{
  "type": "crafting_shaped",
  "pattern": [
    "X X",
    "XXX",
    "XXX"
  ],
  "key": {
    "X": {
      "item": "minecraft:diamond"
    }
  },
  "result": {
    "item": "minecraft:diamond_chestplate"
  }
}