{
  "type": "crafting_shapeless",
  "ingredients": [
    {
      "item": "minecraft:stone",
      "data": 3
    },
    {
      "item": "minecraft:quartz"
    }
  ],
  "result": {
    "item": "minecraft:stone",
    "data": 1
  }
}