{
  "type": "crafting_shaped",
  "pattern": [
    "##",
    "##"
  ],
  "key": {
    "#": {
      "item": "minecraft:iron_ingot"
    }
  },
  "result": {
    "item": "minecraft:iron_trapdoor"
  }
}