{
  "type": "crafting_shaped",
  "pattern": [
    "A",
    "B"
  ],
  "key": {
    "A": {
      "item": "minecraft:carved_pumpkin"
    },
    "B": {
      "item": "minecraft:torch"
    }
  },
  "result": {
    "item": "minecraft:lit_pumpkin"
  }
}