{
  "type": "crafting_shaped",
  "pattern": [
    "###",
    "###",
    "###"
  ],
  "key": {
    "#": {
      "item": "minecraft:nether_wart"
    }
  },
  "result": {
    "item": "minecraft:nether_wart_block"
  }
}