{
  "type": "crafting_shaped",
  "pattern": [
    "#",
    "#"
  ],
  "key": {
    "#": {
      "item": "minecraft:quartz_block",
      "data": 0
    }
  },
  "result": {
    "item": "minecraft:quartz_block",
    "data": 2,
    "count": 2
  }
}