{
  "type": "crafting_shaped",
  "pattern": [
    "#  ",
    "## ",
    "###"
  ],
  "key": {
    "#": {
      "item": "minecraft:prismarine",
      "data": 1
    }
  },
  "result": {
    "item": "minecraft:dark_prismarine_stairs",
    "count": 4
  }
}