{
  "type": "crafting_shaped",
  "pattern": [
    "#  ",
    "## ",
    "###"
  ],
  "key": {
    "#": {
      "item": "minecraft:cobblestone"
    }
  },
  "result": {
    "item": "minecraft:stone_stairs",
    "count": 4
  }
}