{
  "type": "crafting_shaped",
  "pattern": [
    "##"
  ],
  "key": {
    "#": {
      "item": "minecraft:stone",
      "data": 0
    }
  },
  "result": {
    "item": "minecraft:stone_pressure_plate"
  }
}