{
  "format_version": "1.8.0-beta.1",
  "particles": {
    "minecraft:block_destruct": {
      "basic_render_parameters": {
        "material": "particles_alpha",
        "texture": "atlas.terrain"
      },
      "components": {
        "minecraft:emitter_rate_instant": {
          "num_particles": "entity.emitter_intensity * entity.emitter_intensity * (entity.emitter_intensity)"
        },
        "minecraft:emitter_lifetime_once": {
          "active_time": 0
        },
        "minecraft:emitter_shape_point": {
          "offset": [ "Math.random(-entity.emitter_radius, entity.emitter_radius)", "Math.random(-entity.emitter_radius, entity.emitter_radius)", "Math.random(-entity.emitter_radius, entity.emitter_radius)" ],
          "direction": [ "Math.random(-1,1)", 1, "Math.random(-1, 1)" ]
        },
        "minecraft:particle_initial_speed": "Math.random(0, 4) * entity.velocity_scalar",
        "minecraft:particle_lifetime_expression": {
          "max_lifetime": "Math.random(0.2, 2)"
        },
        "minecraft:particle_motion_dynamic": {
          "linear_acceleration": [ 0, -9.8, 0 ],
          "linear_drag_coefficient": 0.5
        },
        "minecraft:particle_motion_collision": {
          "coefficient_of_restitution": 0.1,
          "collision_drag": 5,
          "collision_radius": 0.1
        },
        "minecraft:particle_appearance_billboard": {
          "size": [ "Entity.ParticleRandom1 * 0.0375 + 0.0375", "Entity.ParticleRandom1 * 0.0375 + 0.0375" ],
          "facing_camera_mode": "rotate_xyz",
          "uv": {
            "texturewidth": 1,
            "textureheight": 1,
            "uv": [ "entity.EmitterTextureCoord.u + (entity.EmitterTextureSize.u/4) * (Entity.ParticleRandom1*3)", "entity.EmitterTextureCoord.v + (entity.EmitterTextureSize.v/4) * (Entity.ParticleRandom2*3)" ],
            "uv_size": [ "entity.EmitterTextureSize.u/4", "entity.EmitterTextureSize.v/4" ]
          }
        },
        "minecraft:particle_appearance_tinting": {
          "color": [ "entity.color.r", "entity.color.g", "entity.color.b", "entity.color.a" ]
        },
        "minecraft:particle_appearance_lighting": {}
      }
    }
  }
}