{
  "format_version": "1.8.0-beta.1",
  "animation_controllers": {
    "controller.animation.dolphin.general": {
      "states": {
        "default": {
          "animations": {
            "move": {}
          }
        }
      }
    }
  }
}