[
  "textures/blocks/element_000_unknown",
  "textures/blocks/element_001_h",
  "textures/blocks/element_002_he",
  "textures/blocks/element_003_li",
  "textures/blocks/element_004_be",
  "textures/blocks/element_005_b",
  "textures/blocks/element_006_c",
  "textures/blocks/element_007_n",
  "textures/blocks/element_008_o",
  "textures/blocks/element_009_f",
  "textures/blocks/element_010_ne",
  "textures/blocks/element_011_na",
  "textures/blocks/element_012_mg",
  "textures/blocks/element_013_al",
  "textures/blocks/element_014_si",
  "textures/blocks/element_015_p",
  "textures/blocks/element_016_s",
  "textures/blocks/element_017_cl",
  "textures/blocks/element_018_ar",
  "textures/blocks/element_019_k",
  "textures/blocks/element_020_ca",
  "textures/blocks/element_021_sc",
  "textures/blocks/element_022_ti",
  "textures/blocks/element_023_v",
  "textures/blocks/element_024_cr",
  "textures/blocks/element_025_mn",
  "textures/blocks/element_026_fe",
  "textures/blocks/element_027_co",
  "textures/blocks/element_028_ni",
  "textures/blocks/element_029_cu",
  "textures/blocks/element_030_zn",
  "textures/blocks/element_031_ga",
  "textures/blocks/element_032_ge",
  "textures/blocks/element_033_as",
  "textures/blocks/element_034_se",
  "textures/blocks/element_035_br",
  "textures/blocks/element_036_kr",
  "textures/blocks/element_037_rb",
  "textures/blocks/element_038_sr",
  "textures/blocks/element_039_y",
  "textures/blocks/element_040_zr",
  "textures/blocks/element_041_nb",
  "textures/blocks/element_042_mo",
  "textures/blocks/element_043_tc",
  "textures/blocks/element_044_ru",
  "textures/blocks/element_045_rh",
  "textures/blocks/element_046_pd",
  "textures/blocks/element_047_ag",
  "textures/blocks/element_048_cd",
  "textures/blocks/element_049_in",
  "textures/blocks/element_050_sn",
  "textures/blocks/element_051_sb",
  "textures/blocks/element_052_te",
  "textures/blocks/element_053_i",
  "textures/blocks/element_054_xe",
  "textures/blocks/element_055_cs",
  "textures/blocks/element_056_ba",
  "textures/blocks/element_057_la",
  "textures/blocks/element_058_ce",
  "textures/blocks/element_059_pr",
  "textures/blocks/element_060_nd",
  "textures/blocks/element_061_pm",
  "textures/blocks/element_062_sm",
  "textures/blocks/element_063_eu",
  "textures/blocks/element_064_gd",
  "textures/blocks/element_065_tb",
  "textures/blocks/element_066_dy",
  "textures/blocks/element_067_ho",
  "textures/blocks/element_068_er",
  "textures/blocks/element_069_tm",
  "textures/blocks/element_070_yb",
  "textures/blocks/element_071_lu",
  "textures/blocks/element_072_hf",
  "textures/blocks/element_073_ta",
  "textures/blocks/element_074_w",
  "textures/blocks/element_075_re",
  "textures/blocks/element_076_os",
  "textures/blocks/element_077_ir",
  "textures/blocks/element_078_pt",
  "textures/blocks/element_079_au",
  "textures/blocks/element_080_hg",
  "textures/blocks/element_081_tl",
  "textures/blocks/element_082_pb",
  "textures/blocks/element_083_bi",
  "textures/blocks/element_084_po",
  "textures/blocks/element_085_at",
  "textures/blocks/element_086_rn",
  "textures/blocks/element_087_fr",
  "textures/blocks/element_088_ra",
  "textures/blocks/element_089_ac",
  "textures/blocks/element_090_th",
  "textures/blocks/element_091_pa",
  "textures/blocks/element_092_u",
  "textures/blocks/element_093_np",
  "textures/blocks/element_094_pu",
  "textures/blocks/element_095_am",
  "textures/blocks/element_096_cm",
  "textures/blocks/element_097_bk",
  "textures/blocks/element_098_cf",
  "textures/blocks/element_099_es",
  "textures/blocks/element_100_fm",
  "textures/blocks/element_101_md",
  "textures/blocks/element_102_no",
  "textures/blocks/element_103_lr",
  "textures/blocks/element_104_rf",
  "textures/blocks/element_105_db",
  "textures/blocks/element_106_sg",
  "textures/blocks/element_107_bh",
  "textures/blocks/element_108_hs",
  "textures/blocks/element_109_mt",
  "textures/blocks/element_110_ds",
  "textures/blocks/element_111_rg",
  "textures/blocks/element_112_cn",
  "textures/blocks/element_113_nh",
  "textures/blocks/element_114_fl",
  "textures/blocks/element_115_mc",
  "textures/blocks/element_116_lv",
  "textures/blocks/element_117_ts",
  "textures/blocks/element_118_og",
  "textures/blocks/compound_creator_inside",
  "textures/blocks/compound_creator_inside_bottom",
  "textures/blocks/compound_creator_side_a",
  "textures/blocks/compound_creator_side_b",
  "textures/blocks/compound_creator_side_c",
  "textures/blocks/compound_creator_top",
  "textures/blocks/element_constructor_back",
  "textures/blocks/element_constructor_front",
  "textures/blocks/element_constructor_side_a",
  "textures/blocks/element_constructor_side_b",
  "textures/blocks/element_constructor_top",
  "textures/blocks/lab_table_bottom",
  "textures/blocks/lab_table_front",
  "textures/blocks/lab_table_side_a",
  "textures/blocks/lab_table_side_b",
  "textures/blocks/lab_table_side_c",
  "textures/blocks/lab_table_top",
  "textures/blocks/material_reducer_bottom",
  "textures/blocks/material_reducer_front",
  "textures/blocks/material_reducer_side",
  "textures/blocks/material_reducer_top",
  "textures/blocks/chemical_heat",
  "textures/blocks/glow_stick_blue",
  "textures/blocks/glow_stick_brown",
  "textures/blocks/glow_stick_cyan",
  "textures/blocks/glow_stick_gray",
  "textures/blocks/glow_stick_green",
  "textures/blocks/glow_stick_light_blue",
  "textures/blocks/glow_stick_lime",
  "textures/blocks/glow_stick_magenta",
  "textures/blocks/glow_stick_orange",
  "textures/blocks/glow_stick_pink",
  "textures/blocks/glow_stick_purple",
  "textures/blocks/glow_stick_red",
  "textures/blocks/glow_stick_white",
  "textures/blocks/glow_stick_yellow",
  "textures/blocks/hard_glass",
  "textures/blocks/hard_glass_black",
  "textures/blocks/hard_glass_blue",
  "textures/blocks/hard_glass_brown",
  "textures/blocks/hard_glass_cyan",
  "textures/blocks/hard_glass_gray",
  "textures/blocks/hard_glass_green",
  "textures/blocks/hard_glass_light_blue",
  "textures/blocks/hard_glass_lime",
  "textures/blocks/hard_glass_magenta",
  "textures/blocks/hard_glass_orange",
  "textures/blocks/hard_glass_pink",
  "textures/blocks/hard_glass_purple",
  "textures/blocks/hard_glass_red",
  "textures/blocks/hard_glass_silver",
  "textures/blocks/hard_glass_white",
  "textures/blocks/hard_glass_yellow",
  "textures/blocks/tnt_bottom_underwater",
  "textures/blocks/tnt_side_underwater",
  "textures/blocks/tnt_top_underwater",
  "textures/blocks/torch_underwater",
  "textures/blocks/torch_red",
  "textures/blocks/torch_green",
  "textures/blocks/torch_blue",
  "textures/blocks/torch_purple",
  "textures/entity/balloon",
  "textures/ui/white_slider_progress",
  "textures/ui/proton",
  "textures/ui/electron",
  "textures/ui/neutron",
  "textures/ui/proton_lowdetail",
  "textures/ui/electron_lowdetail",
  "textures/ui/material_reducer_connectors",
  "textures/items/balloon",
  "textures/items/bleach",
  "textures/items/compounds/beaker_black",
  "textures/items/compounds/beaker_blue",
  "textures/items/compounds/beaker_brown",
  "textures/items/compounds/beaker_clear",
  "textures/items/compounds/beaker_dark_grey",
  "textures/items/compounds/beaker_green",
  "textures/items/compounds/beaker_indigo",
  "textures/items/compounds/beaker_light_grey",
  "textures/items/compounds/beaker_orange",
  "textures/items/compounds/beaker_purple",
  "textures/items/compounds/beaker_red",
  "textures/items/compounds/beaker_white",
  "textures/items/compounds/beaker_yellow",
  "textures/items/compounds/jar_black",
  "textures/items/compounds/jar_blue",
  "textures/items/compounds/jar_brown",
  "textures/items/compounds/jar_clear",
  "textures/items/compounds/jar_dark_grey",
  "textures/items/compounds/jar_green",
  "textures/items/compounds/jar_indigo",
  "textures/items/compounds/jar_light_grey",
  "textures/items/compounds/jar_orange",
  "textures/items/compounds/jar_purple",
  "textures/items/compounds/jar_red",
  "textures/items/compounds/jar_white",
  "textures/items/compounds/jar_yellow",
  "textures/items/compounds/flask_black",
  "textures/items/compounds/flask_blue",
  "textures/items/compounds/flask_brown",
  "textures/items/compounds/flask_clear",
  "textures/items/compounds/flask_dark_grey",
  "textures/items/compounds/flask_green",
  "textures/items/compounds/flask_indigo",
  "textures/items/compounds/flask_light_grey",
  "textures/items/compounds/flask_orange",
  "textures/items/compounds/flask_purple",
  "textures/items/compounds/flask_red",
  "textures/items/compounds/flask_white",
  "textures/items/compounds/flask_yellow",
  "textures/items/compounds/garbage",
  "textures/items/compounds/glue",
  "textures/items/compounds/salt",
  "textures/items/ice_bomb",
  "textures/items/medicine_blindness",
  "textures/items/medicine_nausea",
  "textures/items/medicine_poison",
  "textures/items/medicine_weakness",
  "textures/items/rapid_fertilizer",
  "textures/items/sparkler_blue",
  "textures/items/sparkler_blue_off",
  "textures/items/sparkler_green",
  "textures/items/sparkler_green_off",
  "textures/items/sparkler_orange",
  "textures/items/sparkler_orange_off",
  "textures/items/sparkler_purple",
  "textures/items/sparkler_purple_off",
  "textures/items/sparkler_red",
  "textures/items/sparkler_red_off",
  "textures/particle/particles",
  "textures/ui/arrow",
  "textures/ui/beaker_active",
  "textures/ui/beaker_default",
  "textures/ui/button_slash",
  "textures/ui/chemistry_slider_background_hover",
  "textures/ui/chemistry_slider_button_default",
  "textures/ui/compound_background",
  "textures/ui/dialog_indent_horiz",
  "textures/ui/flask_active",
  "textures/ui/flask_default",
  "textures/ui/jar_active",
  "textures/ui/jar_default",
  "textures/ui/microscope",
  "textures/ui/material_reducer_connectors_pocket",
  "textures/ui/placeholder_element"
]